﻿/////////////////////////////////////////////////////////////
// Resources file, created with HLBox17b, free software!!! //
//  © Chapo 2005-2010 - Infos @ http://www.17buddies.net   //
//            More than 50000 maps to download!            //
/////////////////////////////////////////////////////////////
// cs_militia32.res
// Created: GMT 2011-02-28 17:13:49

