
models/palme.mdl
models/a4vase.mdl
models/a5vase.mdl
models/a7vase.mdl
models/a1barrel.mdl
sound/de_antiochia/beben.wav
sound/de_antiochia/busch.wav
sound/de_antiochia/muslim.wav
sound/de_antiochia/oriental1.wav
sound/de_antiochia/voegel.wav
maps/de_antiochia.bsp
maps/de_antiochia.txt
maps/de_antiochia.res
de_antiochia.wad
zhlt.wad