maps/de_blue_b4.txt
maps/de_blue_b4.res
models/de_blue/cactus.mdl
models/de_blue/ginsengavenger_palm240_256.mdl
models/de_blue/ginsengavenger_palmgroup.mdl
overviews/de_blue_b4.txt
overviews/de_blue_b4.bmp
