==========================================
DE_BOSE_B1
by Bernd aka Dizcid 
More maps @ http://www.dizcid-designs.nl/
If you find a bug or you want something else please send a e-mail to bernd@dizcid-designs.nl
==========================================

==========================================
Counter-Terrorists
==========================================
Prevent Terrorists from bombing one of the two wells to destroy the sewerage of the village.
==========================================

==========================================
Terrorists
==========================================
Place the C4 at one of the two wells to destroy the sewerage of the village.
==========================================


