maps/de_dust2_2x2_winter.res
gfx/env/alpinebk.tga
gfx/env/alpinedn.tga
gfx/env/alpineft.tga
gfx/env/alpinelf.tga
gfx/env/alpinert.tga
gfx/env/alpineup.tga
models/nightmare/de_dust2_2x2_winter/snowman.mdl