//File generated by DS-Servers
//Visit https://ds-servers.com
//Download this map: https://ds-servers.com/maps/goldsrc/cstrike/de_irak_32.html
halflife.wad
decals.wad
gfx/env/trainyardbk.tga
gfx/env/trainyarddn.tga
gfx/env/trainyardft.tga
gfx/env/trainyardlf.tga
gfx/env/trainyardrt.tga
gfx/env/trainyardup.tga
sound/ambience/lv_neon.wav
maps/de_irak_32.bsp
