// !!! DO NOT DELETE OR MODIFY THIS FILE !!!
// .res entries:
gfx/env/Desft.tga
gfx/env/Deslf.tga
gfx/env/Desrt.tga
gfx/env/Desup.tga
gfx/env/Desbk.tga
gfx/env/Desdn.tga
maps/de_industro.txt
maps/de_industro.bsp
maps/de_industro.res