﻿/////////////////////////////////////////////////////////////
// Resources file, created with HLBox17b, free software!!! //
//  © Chapo 2005-2012 - Infos @ http://www.17buddies.net   //
//            More than 80000 maps to download!            //
/////////////////////////////////////////////////////////////
// de_kabul2.res
// Created: GMT 2013-02-11 16:32:24

