//////////////////////////////////////////////////////////
// Resources file, created with 17buddies php script!!! //
// © Chapo 2005-2013 - Infos @ http://www.17buddies.net //
//          More than 85000 maps to download!           //
//                                                      //
//      Can you play all of our maps ?? Sure not!!      //
//////////////////////////////////////////////////////////
//
// Res file generated by Chapo for 17Buddies.
//
// Map Name  : de_prodigy_32
//
// Download @: http://www.17buddies.net/17b2/View/Map/53013/de_prodigy_32.html
//
//////////////////////////////////////////////////////////
// Wad files legend:
//     *  : Hardcoded in bsp file, this wad was found (in
//          archive or on 17Buddies's website) but doesn't
//          contains any used texture.
//          However, this file may be necessary.
//     ** : Hardcoded in bsp file, this wad could not be
//          found (neither in archive nor on 17Buddies's
//          website) and thus could not be analysed.
//          However, this file may be necessary.
//////////////////////////////////////////////////////////
prodigy.wad
gfx/env/duskup.tga
gfx/env/duskdn.tga
gfx/env/dusklf.tga
gfx/env/duskrt.tga
gfx/env/duskft.tga
gfx/env/duskbk.tga
