// !!! DO NOT DELETE OR MODIFY THIS FILE !!!
// .res entries:
gfx/env/ghettoup.tga
gfx/env/ghettodn.tga
gfx/env/ghettolf.tga
gfx/env/ghettort.tga
gfx/env/ghettoft.tga
gfx/env/ghettobk.tga
sound/ambience/100jump.wav
sprites/fire2.spr
overviews/de_priest.bmp
overviews/de_priest.txt
maps/de_priest.txt
maps/de_priest_readme.txt
maps/de_priest.res
