﻿/////////////////////////////////////////////////////////////
// Resources file, created with HLBox17b, free software!!! //
//  © Chapo 2005-2010 - Infos @ http://www.17buddies.net   //
//            More than 50000 maps to download!            //
/////////////////////////////////////////////////////////////
// gg_fy_deagle_dustworld3.res
// Created: GMT 2010-11-01 11:23:28

